Hallo ini dari Macbook

lagi ya

Hai Penggembar Macboook

Hai Juga


Hellow Bro



Ini dair macbook


config hallo

<<<<<<< HEAD
Hello World


Ini kodingan dari macbook
=======
Mantap
>>>>>>> 2e220e69614cf1db122322f780528ab03805e111
